EESchema Schematic File Version 4
EELAYER 30 0
EELAYER END
$Descr A4 11693 8268
encoding utf-8
Sheet 1 1
Title ""
Date ""
Rev ""
Comp ""
Comment1 ""
Comment2 ""
Comment3 ""
Comment4 ""
$EndDescr
$Comp
L power:GND #PWR02
U 1 1 6116AB24
P 3300 4650
F 0 "#PWR02" H 3300 4400 50  0001 C CNN
F 1 "GND" V 3300 4450 50  0000 C CNN
F 2 "" H 3300 4650 50  0001 C CNN
F 3 "" H 3300 4650 50  0001 C CNN
	1    3300 4650
	0    -1   -1   0   
$EndComp
$Comp
L power:+3.3V #PWR03
U 1 1 6116B629
P 3300 4850
F 0 "#PWR03" H 3300 4700 50  0001 C CNN
F 1 "+3.3V" V 3300 5100 50  0000 C CNN
F 2 "" H 3300 4850 50  0001 C CNN
F 3 "" H 3300 4850 50  0001 C CNN
	1    3300 4850
	0    1    1    0   
$EndComp
Text GLabel 1400 5850 0    50   Input ~ 0
IO_MOSFET
Text GLabel 7500 2600 0    50   Input ~ 0
IO_MOSFET
Wire Wire Line
	1400 5850 1650 5850
$Comp
L Device:R R10
U 1 1 611734FB
P 8600 3550
F 0 "R10" H 8670 3596 50  0000 L CNN
F 1 "10K" V 8600 3500 50  0000 L CNN
F 2 "" V 8530 3550 50  0001 C CNN
F 3 "~" H 8600 3550 50  0001 C CNN
	1    8600 3550
	1    0    0    -1  
$EndComp
Text Notes 9100 3600 0    50   ~ 0
Logic level N channel mosfet\nLOW = OFF\nHIGH = ON
$Comp
L Device:R R9
U 1 1 61176DB4
P 7750 2600
F 0 "R9" V 7650 2600 50  0000 C CNN
F 1 "470" V 7750 2600 50  0000 C CNN
F 2 "" V 7680 2600 50  0001 C CNN
F 3 "~" H 7750 2600 50  0001 C CNN
	1    7750 2600
	0    1    1    0   
$EndComp
$Comp
L power:+5V #PWR01
U 1 1 6117A92C
P 3250 4250
F 0 "#PWR01" H 3250 4100 50  0001 C CNN
F 1 "+5V" H 3400 4350 50  0000 C CNN
F 2 "" H 3250 4250 50  0001 C CNN
F 3 "" H 3250 4250 50  0001 C CNN
	1    3250 4250
	-1   0    0    -1  
$EndComp
Text Notes 2750 4050 0    50   ~ 0
Vin is powered by switching power supply
$Comp
L symbols:DS18B20 U2
U 1 1 6118728D
P 5950 1350
F 0 "U2" H 6228 1445 45  0000 L CNN
F 1 "DS18B20" H 6228 1361 45  0000 L CNN
F 2 "TO-92-AMMO" H 5950 1800 20  0001 C CNN
F 3 "" H 5950 1350 60  0001 C CNN
F 4 "SEN-00245" H 6228 1266 60  0000 L CNN "Field4"
	1    5950 1350
	1    0    0    -1  
$EndComp
$Comp
L power:GND #PWR04
U 1 1 611877DB
P 5300 1550
F 0 "#PWR04" H 5300 1300 50  0001 C CNN
F 1 "GND" V 5305 1422 50  0000 R CNN
F 2 "" H 5300 1550 50  0001 C CNN
F 3 "" H 5300 1550 50  0001 C CNN
	1    5300 1550
	0    1    1    0   
$EndComp
$Comp
L power:+3.3V #PWR05
U 1 1 61187C1C
P 5400 800
F 0 "#PWR05" H 5400 650 50  0001 C CNN
F 1 "+3.3V" H 5550 900 50  0000 C CNN
F 2 "" H 5400 800 50  0001 C CNN
F 3 "" H 5400 800 50  0001 C CNN
	1    5400 800 
	1    0    0    -1  
$EndComp
Wire Wire Line
	5300 1550 5600 1550
Wire Wire Line
	5600 1150 5400 1150
$Comp
L Device:R R3
U 1 1 6118B192
P 5200 1100
F 0 "R3" V 5100 1100 50  0000 C CNN
F 1 "4,7K" V 5200 1100 50  0000 C CNN
F 2 "" V 5130 1100 50  0001 C CNN
F 3 "~" H 5200 1100 50  0001 C CNN
	1    5200 1100
	-1   0    0    1   
$EndComp
Wire Wire Line
	5400 1150 5400 900 
Text GLabel 1400 5950 0    50   Input ~ 0
IO_NTC
Wire Wire Line
	1400 5950 1650 5950
Text GLabel 5050 1350 0    50   BiDi ~ 0
IO_NTC
Wire Wire Line
	5050 1350 5200 1350
Wire Wire Line
	5200 1250 5200 1350
Connection ~ 5200 1350
Wire Wire Line
	5200 1350 5600 1350
Wire Wire Line
	5200 950  5200 900 
Wire Wire Line
	5200 900  5400 900 
Connection ~ 5400 900 
Wire Wire Line
	5400 900  5400 800 
Text Notes 5750 950  0    50   ~ 0
1 wire NTC
$Comp
L Device:LED D1
U 1 1 61197EBC
P 6350 5050
F 0 "D1" H 6343 4795 50  0000 C CNN
F 1 "LED" H 6343 4886 50  0000 C CNN
F 2 "" H 6350 5050 50  0001 C CNN
F 3 "~" H 6350 5050 50  0001 C CNN
	1    6350 5050
	-1   0    0    1   
$EndComp
$Comp
L Device:R R6
U 1 1 61198920
P 5900 5050
F 0 "R6" V 5800 5050 50  0000 C CNN
F 1 "10K" V 5900 5050 50  0000 C CNN
F 2 "" V 5830 5050 50  0001 C CNN
F 3 "~" H 5900 5050 50  0001 C CNN
	1    5900 5050
	0    1    1    0   
$EndComp
Wire Wire Line
	6050 5050 6200 5050
Wire Wire Line
	3050 5550 3300 5550
Text GLabel 5650 5050 0    50   Input ~ 0
IO_HEATING_LED
Wire Wire Line
	5650 5050 5750 5050
$Comp
L power:GND #PWR012
U 1 1 6119A3BF
P 8600 3850
F 0 "#PWR012" H 8600 3600 50  0001 C CNN
F 1 "GND" V 8605 3722 50  0000 R CNN
F 2 "" H 8600 3850 50  0001 C CNN
F 3 "" H 8600 3850 50  0001 C CNN
	1    8600 3850
	1    0    0    -1  
$EndComp
Wire Wire Line
	6700 5050 6500 5050
$Comp
L symbols:SSD1306_OLED U3
U 1 1 611A35F0
P 6200 6000
F 0 "U3" H 6378 6051 50  0000 L CNN
F 1 "SSD1306_OLED" H 6378 5960 50  0000 L CNN
F 2 "" H 6100 6050 50  0001 C CNN
F 3 "" H 6100 6050 50  0001 C CNN
	1    6200 6000
	1    0    0    -1  
$EndComp
$Comp
L power:+3.3V #PWR07
U 1 1 611A9635
P 5800 5700
F 0 "#PWR07" H 5800 5550 50  0001 C CNN
F 1 "+3.3V" H 5950 5800 50  0000 C CNN
F 2 "" H 5800 5700 50  0001 C CNN
F 3 "" H 5800 5700 50  0001 C CNN
	1    5800 5700
	1    0    0    -1  
$EndComp
Wire Wire Line
	5800 5700 5800 5850
Wire Wire Line
	5800 5850 5950 5850
$Comp
L power:GND #PWR06
U 1 1 611AA1A5
P 5700 5950
F 0 "#PWR06" H 5700 5700 50  0001 C CNN
F 1 "GND" V 5705 5822 50  0000 R CNN
F 2 "" H 5700 5950 50  0001 C CNN
F 3 "" H 5700 5950 50  0001 C CNN
	1    5700 5950
	0    1    1    0   
$EndComp
Wire Wire Line
	5700 5950 5950 5950
Text GLabel 5700 6050 0    50   Input ~ 0
I2C_SCK
Wire Wire Line
	5700 6050 5950 6050
Text GLabel 5700 6150 0    50   Input ~ 0
I2C_SDA
Wire Wire Line
	5700 6150 5950 6150
Text Notes 5950 6350 0    50   ~ 0
I2C Display
Text GLabel 1350 4550 0    50   Input ~ 0
I2C_SCK
Text GLabel 1350 4450 0    50   Input ~ 0
I2C_SDA
Wire Wire Line
	1350 4450 1650 4450
Wire Wire Line
	1650 4550 1350 4550
$Comp
L Isolator:PC817 U4
U 1 1 6123B567
P 8250 2700
F 0 "U4" H 8250 3025 50  0000 C CNN
F 1 "PC817" H 8250 2934 50  0000 C CNN
F 2 "Package_DIP:DIP-4_W7.62mm" H 8050 2500 50  0001 L CIN
F 3 "http://www.soselectronic.cz/a_info/resource/d/pc817.pdf" H 8250 2700 50  0001 L CNN
	1    8250 2700
	1    0    0    -1  
$EndComp
Wire Wire Line
	7900 2600 7950 2600
Wire Wire Line
	7500 2600 7600 2600
$Comp
L power:+12V #PWR014
U 1 1 6124AC5C
P 9200 2600
F 0 "#PWR014" H 9200 2450 50  0001 C CNN
F 1 "+12V" V 9215 2728 50  0000 L CNN
F 2 "" H 9200 2600 50  0001 C CNN
F 3 "" H 9200 2600 50  0001 C CNN
	1    9200 2600
	0    1    1    0   
$EndComp
Wire Wire Line
	8550 2800 8600 2800
Wire Wire Line
	8600 3850 8600 3800
Wire Wire Line
	8950 3400 8950 3800
Wire Wire Line
	8950 3800 8600 3800
Connection ~ 8600 3800
Wire Wire Line
	8600 3800 8600 3700
Wire Wire Line
	7950 2800 7900 2800
Wire Wire Line
	7900 3800 8600 3800
$Comp
L dk_Transistors-FETs-MOSFETs-Single:IRF540NPBF Q1
U 1 1 612719A4
P 8950 3200
F 0 "Q1" H 9058 3253 60  0000 L CNN
F 1 "IRF540NPBF" H 9058 3147 60  0000 L CNN
F 2 "digikey-footprints:TO-220-3" H 9150 3400 60  0001 L CNN
F 3 "https://www.infineon.com/dgdl/irf540npbf.pdf?fileId=5546d462533600a4015355e39f0d19a1" H 9150 3500 60  0001 L CNN
F 4 "IRF540NPBF-ND" H 9150 3600 60  0001 L CNN "Digi-Key_PN"
F 5 "IRF540NPBF" H 9150 3700 60  0001 L CNN "MPN"
F 6 "Discrete Semiconductor Products" H 9150 3800 60  0001 L CNN "Category"
F 7 "Transistors - FETs, MOSFETs - Single" H 9150 3900 60  0001 L CNN "Family"
F 8 "https://www.infineon.com/dgdl/irf540npbf.pdf?fileId=5546d462533600a4015355e39f0d19a1" H 9150 4000 60  0001 L CNN "DK_Datasheet_Link"
F 9 "/product-detail/en/infineon-technologies/IRF540NPBF/IRF540NPBF-ND/811869" H 9150 4100 60  0001 L CNN "DK_Detail_Page"
F 10 "MOSFET N-CH 100V 33A TO-220AB" H 9150 4200 60  0001 L CNN "Description"
F 11 "Infineon Technologies" H 9150 4300 60  0001 L CNN "Manufacturer"
F 12 "Active" H 9150 4400 60  0001 L CNN "Status"
	1    8950 3200
	1    0    0    -1  
$EndComp
Wire Wire Line
	8600 3400 8600 3300
Wire Wire Line
	8650 3300 8600 3300
$Comp
L Device:Rotary_Encoder_Switch SW1
U 1 1 61281370
P 5850 3400
F 0 "SW1" H 5850 3767 50  0000 C CNN
F 1 "Rotary_Encoder_Switch" H 5850 3676 50  0000 C CNN
F 2 "" H 5700 3560 50  0001 C CNN
F 3 "~" H 5850 3660 50  0001 C CNN
	1    5850 3400
	1    0    0    -1  
$EndComp
Text GLabel 3300 5950 2    50   Input ~ 0
RE_A
Text GLabel 3300 5850 2    50   Input ~ 0
RE_B
Wire Wire Line
	3300 5750 3050 5750
Wire Wire Line
	3300 5850 3050 5850
Text GLabel 4750 3300 0    50   Output ~ 0
RE_A
Text GLabel 4750 3500 0    50   Output ~ 0
RE_B
Wire Wire Line
	4750 3300 4850 3300
Text GLabel 3300 5750 2    50   Input ~ 0
RE_S
Wire Wire Line
	3300 5950 3050 5950
$Comp
L power:GND #PWR09
U 1 1 612916CC
P 5850 4200
F 0 "#PWR09" H 5850 3950 50  0001 C CNN
F 1 "GND" H 5855 4027 50  0000 C CNN
F 2 "" H 5850 4200 50  0001 C CNN
F 3 "" H 5850 4200 50  0001 C CNN
	1    5850 4200
	1    0    0    -1  
$EndComp
Wire Wire Line
	5550 3400 5500 3400
Wire Wire Line
	5500 3400 5500 4050
Wire Wire Line
	5500 4050 5850 4050
Wire Wire Line
	5850 4050 5850 4200
Wire Wire Line
	6150 3500 6250 3500
Wire Wire Line
	6250 3500 6250 4050
Wire Wire Line
	6250 4050 5850 4050
Connection ~ 5850 4050
Text GLabel 6900 3300 2    50   Output ~ 0
RE_S
Connection ~ 5350 3300
Wire Wire Line
	5350 3300 5550 3300
Wire Wire Line
	4750 3500 4850 3500
Connection ~ 5200 3500
Wire Wire Line
	5200 3500 5550 3500
$Comp
L Device:R R8
U 1 1 612B84CB
P 6650 3300
F 0 "R8" V 6550 3300 50  0000 C CNN
F 1 "10K" V 6650 3300 50  0000 C CNN
F 2 "" V 6580 3300 50  0001 C CNN
F 3 "~" H 6650 3300 50  0001 C CNN
	1    6650 3300
	0    -1   -1   0   
$EndComp
Wire Wire Line
	6800 3300 6900 3300
$Comp
L Device:R R1
U 1 1 612B89E4
P 5000 3300
F 0 "R1" V 4900 3300 50  0000 C CNN
F 1 "10K" V 5000 3300 50  0000 C CNN
F 2 "" V 4930 3300 50  0001 C CNN
F 3 "~" H 5000 3300 50  0001 C CNN
	1    5000 3300
	0    -1   -1   0   
$EndComp
Wire Wire Line
	5150 3300 5350 3300
$Comp
L Device:R R2
U 1 1 612B913F
P 5000 3500
F 0 "R2" V 4900 3500 50  0000 C CNN
F 1 "10K" V 5000 3500 50  0000 C CNN
F 2 "" V 4930 3500 50  0001 C CNN
F 3 "~" H 5000 3500 50  0001 C CNN
	1    5000 3500
	0    -1   -1   0   
$EndComp
Wire Wire Line
	5150 3500 5200 3500
$Comp
L Device:C_Small C1
U 1 1 612B9825
P 5200 3750
F 0 "C1" H 5000 3750 50  0000 L CNN
F 1 "100n" H 4950 3650 50  0000 L CNN
F 2 "" H 5200 3750 50  0001 C CNN
F 3 "~" H 5200 3750 50  0001 C CNN
	1    5200 3750
	1    0    0    -1  
$EndComp
$Comp
L Device:C_Small C2
U 1 1 612C90F8
P 5350 3750
F 0 "C2" H 5450 3750 50  0000 L CNN
F 1 "100n" H 5400 3650 50  0000 L CNN
F 2 "" H 5350 3750 50  0001 C CNN
F 3 "~" H 5350 3750 50  0001 C CNN
	1    5350 3750
	1    0    0    -1  
$EndComp
Wire Wire Line
	5350 3650 5350 3300
Wire Wire Line
	5200 3500 5200 3650
Wire Wire Line
	5200 3850 5200 4050
Wire Wire Line
	5200 4050 5350 4050
Connection ~ 5500 4050
Wire Wire Line
	5350 3850 5350 4050
Connection ~ 5350 4050
Wire Wire Line
	5350 4050 5500 4050
Text Notes 4750 4300 0    50   ~ 0
Hardware debouncing\ncapacitors
Text Notes 4800 2900 0    50   ~ 0
RE_A is connected to hardware interrupt.\nIF RE_A becomes low check RE_B\n  IF RE_B is LOW -> Clockwise\n  IF RE_B is HIGH -> Counter clockwise
$Comp
L symbols:LM2596_module U5
U 1 1 612EE7C0
P 8800 5500
F 0 "U5" H 8800 5775 50  0000 C CNN
F 1 "LM2596_module" H 8800 5684 50  0000 C CNN
F 2 "" H 8650 5450 50  0001 C CNN
F 3 "" H 8650 5450 50  0001 C CNN
	1    8800 5500
	1    0    0    -1  
$EndComp
$Comp
L power:+5V #PWR015
U 1 1 612EF50C
P 9450 5450
F 0 "#PWR015" H 9450 5300 50  0001 C CNN
F 1 "+5V" H 9600 5550 50  0000 C CNN
F 2 "" H 9450 5450 50  0001 C CNN
F 3 "" H 9450 5450 50  0001 C CNN
	1    9450 5450
	0    1    -1   0   
$EndComp
Wire Wire Line
	9450 5450 9200 5450
$Comp
L power:GND #PWR013
U 1 1 612F258C
P 8800 5750
F 0 "#PWR013" H 8800 5500 50  0001 C CNN
F 1 "GND" V 8805 5622 50  0000 R CNN
F 2 "" H 8800 5750 50  0001 C CNN
F 3 "" H 8800 5750 50  0001 C CNN
	1    8800 5750
	1    0    0    -1  
$EndComp
Wire Wire Line
	8800 5750 8800 5700
Wire Wire Line
	8800 5700 9300 5700
Wire Wire Line
	9300 5700 9300 5550
Wire Wire Line
	9300 5550 9200 5550
Wire Wire Line
	8400 5550 8300 5550
Wire Wire Line
	8300 5550 8300 5700
Wire Wire Line
	8300 5700 8800 5700
Connection ~ 8800 5700
$Comp
L power:+12V #PWR011
U 1 1 612F9E65
P 8150 5450
F 0 "#PWR011" H 8150 5300 50  0001 C CNN
F 1 "+12V" V 8165 5578 50  0000 L CNN
F 2 "" H 8150 5450 50  0001 C CNN
F 3 "" H 8150 5450 50  0001 C CNN
	1    8150 5450
	0    -1   -1   0   
$EndComp
Wire Wire Line
	8150 5450 8400 5450
$Comp
L power:GND #PWR010
U 1 1 6130504D
P 6700 5050
F 0 "#PWR010" H 6700 4800 50  0001 C CNN
F 1 "GND" V 6705 4922 50  0000 R CNN
F 2 "" H 6700 5050 50  0001 C CNN
F 3 "" H 6700 5050 50  0001 C CNN
	1    6700 5050
	0    -1   -1   0   
$EndComp
$Comp
L Connector:Screw_Terminal_01x02 J1
U 1 1 6130665C
P 9300 2750
F 0 "J1" H 9380 2742 50  0000 L CNN
F 1 "Screw_Terminal_01x02" H 9380 2651 50  0000 L CNN
F 2 "" H 9300 2750 50  0001 C CNN
F 3 "~" H 9300 2750 50  0001 C CNN
	1    9300 2750
	1    0    0    -1  
$EndComp
Text Notes 9200 3000 0    50   ~ 0
Screw terminal to 14ohm heating resistor
Wire Wire Line
	8550 2600 8950 2600
Wire Wire Line
	8950 2850 9100 2850
Wire Wire Line
	9100 2750 8950 2750
Wire Wire Line
	8950 2750 8950 2600
Connection ~ 8950 2600
Wire Wire Line
	8950 2600 9200 2600
Wire Wire Line
	8600 3300 8600 3200
Connection ~ 8600 3300
Wire Wire Line
	8950 2850 8950 3000
Wire Wire Line
	7900 2800 7900 3800
Text Notes 7100 2400 0    50   ~ 0
IO can use PWM
$Comp
L symbols:Pico U1
U 1 1 6124D1BF
P 2350 5400
F 0 "U1" H 2350 6615 50  0000 C CNN
F 1 "Pico" H 2350 6524 50  0000 C CNN
F 2 "RPi_Pico:RPi_Pico_SMD_TH" V 2350 5400 50  0001 C CNN
F 3 "" H 2350 5400 50  0001 C CNN
	1    2350 5400
	1    0    0    -1  
$EndComp
Text Notes 750  4300 0    50   ~ 0
Possible I2C pins:\nSDA0 = [0,4,8,12,16,20]\nSCL0 = [1,5,9,13,17,21]
Text GLabel 3300 5550 2    50   Output ~ 0
IO_HEATING_LED
Wire Wire Line
	3300 4850 3050 4850
Wire Wire Line
	3300 4650 3050 4650
Wire Wire Line
	3250 4250 3250 4550
Wire Wire Line
	3250 4550 3050 4550
$Comp
L dk_Tactile-Switches:B3U-1000P S1
U 1 1 6131F3A8
P 4850 7450
F 0 "S1" H 4850 7747 60  0000 C CNN
F 1 "RESET" H 4850 7641 60  0000 C CNN
F 2 "digikey-footprints:Switch_Tactile_SMD_B3U-1000P" H 5050 7650 60  0001 L CNN
F 3 "https://omronfs.omron.com/en_US/ecb/products/pdf/en-b3u.pdf" H 5050 7750 60  0001 L CNN
F 4 "SW1020CT-ND" H 5050 7850 60  0001 L CNN "Digi-Key_PN"
F 5 "B3U-1000P" H 5050 7950 60  0001 L CNN "MPN"
F 6 "Switches" H 5050 8050 60  0001 L CNN "Category"
F 7 "Tactile Switches" H 5050 8150 60  0001 L CNN "Family"
F 8 "https://omronfs.omron.com/en_US/ecb/products/pdf/en-b3u.pdf" H 5050 8250 60  0001 L CNN "DK_Datasheet_Link"
F 9 "/product-detail/en/omron-electronics-inc-emc-div/B3U-1000P/SW1020CT-ND/1534357" H 5050 8350 60  0001 L CNN "DK_Detail_Page"
F 10 "SWITCH TACTILE SPST-NO 0.05A 12V" H 5050 8450 60  0001 L CNN "Description"
F 11 "Omron Electronics Inc-EMC Div" H 5050 8550 60  0001 L CNN "Manufacturer"
F 12 "Active" H 5050 8650 60  0001 L CNN "Status"
	1    4850 7450
	1    0    0    -1  
$EndComp
$Comp
L power:GND #PWR017
U 1 1 61322B31
P 5150 7450
F 0 "#PWR017" H 5150 7200 50  0001 C CNN
F 1 "GND" V 5155 7322 50  0000 R CNN
F 2 "" H 5150 7450 50  0001 C CNN
F 3 "" H 5150 7450 50  0001 C CNN
	1    5150 7450
	0    -1   -1   0   
$EndComp
Wire Wire Line
	5050 7450 5150 7450
$Comp
L Device:R R11
U 1 1 6132BE3F
P 4450 7450
F 0 "R11" V 4350 7450 50  0000 C CNN
F 1 "10K" V 4450 7450 50  0000 C CNN
F 2 "" V 4380 7450 50  0001 C CNN
F 3 "~" H 4450 7450 50  0001 C CNN
	1    4450 7450
	0    1    1    0   
$EndComp
Text GLabel 3300 5450 2    50   Input ~ 0
RESET_BUTTON
Wire Wire Line
	3050 5450 3300 5450
Text GLabel 4200 7450 0    50   Output ~ 0
RESET_BUTTON
Wire Wire Line
	4200 7450 4300 7450
NoConn ~ 1650 4650
NoConn ~ 1650 4750
NoConn ~ 1650 4850
NoConn ~ 1650 4950
NoConn ~ 1650 5050
NoConn ~ 1650 5150
NoConn ~ 1650 5250
NoConn ~ 1650 5350
NoConn ~ 1650 5450
NoConn ~ 1650 5550
NoConn ~ 1650 5650
NoConn ~ 1650 5750
NoConn ~ 1650 6050
NoConn ~ 1650 6150
NoConn ~ 1650 6250
NoConn ~ 1650 6350
NoConn ~ 2250 6550
NoConn ~ 2350 6550
NoConn ~ 2450 6550
NoConn ~ 3050 6350
NoConn ~ 3050 6250
NoConn ~ 3050 6150
NoConn ~ 3050 6050
NoConn ~ 3050 5650
NoConn ~ 3050 5350
NoConn ~ 3050 5250
NoConn ~ 3050 5150
NoConn ~ 3050 5050
NoConn ~ 3050 4950
NoConn ~ 3050 4750
NoConn ~ 3050 4450
Wire Wire Line
	6150 3300 6500 3300
Wire Wire Line
	4600 7450 4650 7450
$Comp
L Device:R R?
U 1 1 613DBFB6
P 8600 3050
F 0 "R?" H 8670 3096 50  0000 L CNN
F 1 "100" V 8600 3000 50  0000 L CNN
F 2 "" V 8530 3050 50  0001 C CNN
F 3 "~" H 8600 3050 50  0001 C CNN
	1    8600 3050
	1    0    0    -1  
$EndComp
Wire Wire Line
	8600 2900 8600 2800
$EndSCHEMATC
